%YAML 1.1
%TAG !u! tag:unity3d.com,2011:
--- !u!221 &22100000
AnimatorOverrideController:
  m_ObjectHideFlags: 0
  m_PrefabParentObject: {fileID: 0}
  m_PrefabInternal: {fileID: 0}
  m_Name: Hillary New Animations
  m_Controller: {fileID: 9100000, guid: 3644b0f1b074d5444b40358506b99a9c, type: 2}
  m_Clips:
  - m_OriginalClip: {fileID: 7400008, guid: ab392a4be5fbec94a81e8735e5b863b8, type: 3}
    m_OverrideClip: {fileID: 7400008, guid: ab392a4be5fbec94a81e8735e5b863b8, type: 3}
  - m_OriginalClip: {fileID: 7400000, guid: b7cfc96205787fe4e80ceafaaa09d7fe, type: 3}
    m_OverrideClip: {fileID: 7400000, guid: 4d9dbc97de3bcfd4ea17d938a04c8b67, type: 3}
  - m_OriginalClip: {fileID: 7400010, guid: 56ac671a71e63b640a543bf9147c96bd, type: 3}
    m_OverrideClip: {fileID: 7400000, guid: c17c32391fe56e34783bd6d6954f7f2c, type: 3}
  - m_OriginalClip: {fileID: 7400012, guid: 56ac671a71e63b640a543bf9147c96bd, type: 3}
    m_OverrideClip: {fileID: 7400000, guid: 60cc6f8f1d1513a459282560d4d96430, type: 3}
