%YAML 1.1
%TAG !u! tag:unity3d.com,2011:
--- !u!114 &11400000
MonoBehaviour:
  m_ObjectHideFlags: 0
  m_PrefabParentObject: {fileID: 0}
  m_PrefabInternal: {fileID: 0}
  m_GameObject: {fileID: 0}
  m_Enabled: 1
  m_EditorHideFlags: 0
  m_Script: {fileID: 11500000, guid: 02f6adbd117a0fc4fb108fee02eb4adc, type: 3}
  m_Name: Delivery car
  m_EditorClassIdentifier: 
  name: Delivery car
  prefab: {fileID: 1514793020663704, guid: 0bdf46a3f7f4a964b80f17ac9e6e9e66, type: 2}
  requiredLicense: 0
  cost: 270000
  carryingVolume: 0
  maxDrivingRange: 0
  portrait: {fileID: 21300000, guid: 79822b6c978314740a06d51ce6ac19d6, type: 3}
  costPerKm: 0.98
  maxMealsPerDelivery: 20
