%YAML 1.1
%TAG !u! tag:unity3d.com,2011:
--- !u!114 &11400000
MonoBehaviour:
  m_ObjectHideFlags: 0
  m_PrefabParentObject: {fileID: 0}
  m_PrefabInternal: {fileID: 0}
  m_GameObject: {fileID: 0}
  m_Enabled: 1
  m_EditorHideFlags: 0
  m_Script: {fileID: 11500000, guid: 02f6adbd117a0fc4fb108fee02eb4adc, type: 3}
  m_Name: Small refrigerated truck
  m_EditorClassIdentifier: 
  name: Small refrigerated truck
  prefab: {fileID: 100032, guid: 26f477bf67292964d99bd8034504fa7d, type: 3}
  requiredLicense: 0
  cost: 785000
  carryingVolume: 0
  maxDrivingRange: 0
  portrait: {fileID: 21300000, guid: bcca67dab84d04542b681106a311e6f0, type: 3}
  costPerKm: 2.11
  maxMealsPerDelivery: 200
