%YAML 1.1
%TAG !u! tag:unity3d.com,2011:
--- !u!114 &11400000
MonoBehaviour:
  m_ObjectHideFlags: 0
  m_PrefabParentObject: {fileID: 0}
  m_PrefabInternal: {fileID: 0}
  m_GameObject: {fileID: 0}
  m_Enabled: 1
  m_EditorHideFlags: 0
  m_Script: {fileID: 11500000, guid: 6da5bc97e1b20a247811c6c4b0be105a, type: 3}
  m_Name: Gina
  m_EditorClassIdentifier: 
  name: Gina
  prefab: {fileID: 1383523225638650, guid: d0cc611289ac78d48a84c89ab4ccdfc8, type: 2}
  sceneObject: {fileID: 0}
  vehicleLicense: 0
  skill: 0
  cost: 2250
  portrait: {fileID: 21300000, guid: 3b03832521dfc4e4bbea1dd2ba31bb91, type: 3}
  neutralPicture: {fileID: 2800000, guid: 2398c23ab424ee54aaf188f138b69bb7, type: 3}
  resume: "----------------\r\nChef Gina Venter\r\n----------------\r\nAcademic qualifications:\r\n*
    SA Academy for Chef and Culinary Arts\r\n  Level 1 Certificate in food preparation
    and cooking\r\n  Level 2 Certificate in food preparation and cooking (culinary
    arts)\r\n  Level 2 Certificate in food preparation and cooking (patisserie)\r\n
    \ Level 3 Advanced diploma in food preparation and cookery supervision\r\n\r\nCareer
    history:\r\n* SOUS CHEF         - Lord Nelson Hotel Restaurant - 2009 to present
    \r\n* TRAINEE CHEF      - Lord Nelson Hotel            - 2008 to 2009\r\n* KITCHEN
    ASSISTANT - Fast food takeaway           - 2007 to 2008\r\n\r\nSpecialties:\r\nMenu
    planning; Administration; Team management; Contract catering;\r\nMeal prep; Creating
    new recipes; Food safety and storage; Staff supervision\r\n\r\nCharacter traits:\r\nStrong
    leadership skills\r\nAmbitious\r\nMakes sure the job gets done to the highest
    standard"
