%YAML 1.1
%TAG !u! tag:unity3d.com,2011:
--- !u!114 &11400000
MonoBehaviour:
  m_ObjectHideFlags: 0
  m_PrefabParentObject: {fileID: 0}
  m_PrefabInternal: {fileID: 0}
  m_GameObject: {fileID: 0}
  m_Enabled: 1
  m_EditorHideFlags: 0
  m_Script: {fileID: 11500000, guid: 8a3bdb2cd68f901469e7cc149151eb49, type: 3}
  m_Name: Post-Processing Profile
  m_EditorClassIdentifier: 
  debugViews:
    m_Enabled: 1
    m_Settings:
      mode: 0
      depth:
        scale: 1
      motionVectors:
        sourceOpacity: 1
        motionImageOpacity: 0.9
        motionImageAmplitude: 16
        motionVectorsOpacity: 1
        motionVectorsResolution: 24
        motionVectorsAmplitude: 64
  fog:
    m_Enabled: 0
    m_Settings:
      excludeSkybox: 1
  antialiasing:
    m_Enabled: 1
    m_Settings:
      method: 1
      fxaaSettings:
        preset: 2
      taaSettings:
        jitterSpread: 0.95
        sharpen: 0.45
        stationaryBlending: 0.99
        motionBlending: 0.99
  ambientOcclusion:
    m_Enabled: 1
    m_Settings:
      intensity: 1.05
      radius: 0.18
      sampleCount: 10
      downsampling: 1
      forceForwardCompatibility: 0
      ambientOnly: 0
      highPrecision: 0
  screenSpaceReflection:
    m_Enabled: 0
    m_Settings:
      reflection:
        blendType: 0
        reflectionQuality: 2
        maxDistance: 20
        iterationCount: 256
        stepSize: 3
        widthModifier: 0.5
        reflectionBlur: 1
        reflectBackfaces: 0
      intensity:
        reflectionMultiplier: 1
        fadeDistance: 100
        fresnelFade: 1
        fresnelFadePower: 1
      screenEdgeMask:
        intensity: 0.03
  depthOfField:
    m_Enabled: 0
    m_Settings:
      focusDistance: 0.1
      aperture: 14.2
      focalLength: 50
      useCameraFov: 0
      kernelSize: 1
  motionBlur:
    m_Enabled: 1
    m_Settings:
      shutterAngle: 231
      sampleCount: 32
      frameBlending: 0
  eyeAdaptation:
    m_Enabled: 0
    m_Settings:
      lowPercent: 65
      highPercent: 95
      minLuminance: 0.03
      maxLuminance: 2
      keyValue: 0.25
      dynamicKeyValue: 1
      adaptationType: 0
      speedUp: 2
      speedDown: 1
      logMin: -8
      logMax: 4
  bloom:
    m_Enabled: 1
    m_Settings:
      bloom:
        intensity: 0.13
        threshold: 0.74
        softKnee: 0.5
        radius: 5.1
        antiFlicker: 0
      lensDirt:
        texture: {fileID: 0}
        intensity: 3
  colorGrading:
    m_Enabled: 1
    m_Settings:
      tonemapping:
        tonemapper: 2
        neutralBlackIn: 0.0335
        neutralWhiteIn: 7.92
        neutralBlackOut: -0.0091
        neutralWhiteOut: 9.17
        neutralWhiteLevel: 4.75
        neutralWhiteClip: 7.75
      basic:
        postExposure: 0.2
        temperature: 15.4
        tint: 0
        hueShift: 0
        saturation: 1.279
        contrast: 1.061
      channelMixer:
        red: {x: 1, y: 0, z: 0}
        green: {x: 0, y: 1, z: 0}
        blue: {x: 0, y: 0, z: 1}
        currentEditingChannel: 0
      colorWheels:
        mode: 0
        log:
          slope: {r: 1, g: 1, b: 1, a: 0}
          power: {r: 1, g: 1, b: 1, a: 0}
          offset: {r: 1, g: 1, b: 1, a: 0}
        linear:
          lift: {r: 1, g: 0.93098515, b: 0.8426112, a: 0}
          gamma: {r: 1, g: 1, b: 1, a: -0.026622295}
          gain: {r: 1, g: 1, b: 1, a: 0}
      curves:
        master:
          curve:
            serializedVersion: 2
            m_Curve:
            - serializedVersion: 2
              time: 0
              value: 0
              inSlope: 1
              outSlope: 1
              tangentMode: 0
            - serializedVersion: 2
              time: 1
              value: 1
              inSlope: 1
              outSlope: 1
              tangentMode: 0
            m_PreInfinity: 2
            m_PostInfinity: 2
            m_RotationOrder: 0
          m_Loop: 0
          m_ZeroValue: 0
          m_Range: 1
        red:
          curve:
            serializedVersion: 2
            m_Curve:
            - serializedVersion: 2
              time: 0
              value: 0
              inSlope: 1
              outSlope: 1
              tangentMode: 0
            - serializedVersion: 2
              time: 1
              value: 1
              inSlope: 1
              outSlope: 1
              tangentMode: 0
            m_PreInfinity: 2
            m_PostInfinity: 2
            m_RotationOrder: 4
          m_Loop: 0
          m_ZeroValue: 0
          m_Range: 1
        green:
          curve:
            serializedVersion: 2
            m_Curve:
            - serializedVersion: 2
              time: 0
              value: 0
              inSlope: 1
              outSlope: 1
              tangentMode: 0
            - serializedVersion: 2
              time: 1
              value: 1
              inSlope: 1
              outSlope: 1
              tangentMode: 0
            m_PreInfinity: 2
            m_PostInfinity: 2
            m_RotationOrder: 4
          m_Loop: 0
          m_ZeroValue: 0
          m_Range: 1
        blue:
          curve:
            serializedVersion: 2
            m_Curve:
            - serializedVersion: 2
              time: 0
              value: 0
              inSlope: 1
              outSlope: 1
              tangentMode: 0
            - serializedVersion: 2
              time: 1
              value: 1
              inSlope: 1
              outSlope: 1
              tangentMode: 0
            m_PreInfinity: 2
            m_PostInfinity: 2
            m_RotationOrder: 4
          m_Loop: 0
          m_ZeroValue: 0
          m_Range: 1
        hueVShue:
          curve:
            serializedVersion: 2
            m_Curve: []
            m_PreInfinity: 2
            m_PostInfinity: 2
            m_RotationOrder: 4
          m_Loop: 1
          m_ZeroValue: 0.5
          m_Range: 1
        hueVSsat:
          curve:
            serializedVersion: 2
            m_Curve: []
            m_PreInfinity: 2
            m_PostInfinity: 2
            m_RotationOrder: 4
          m_Loop: 1
          m_ZeroValue: 0.5
          m_Range: 1
        satVSsat:
          curve:
            serializedVersion: 2
            m_Curve: []
            m_PreInfinity: 2
            m_PostInfinity: 2
            m_RotationOrder: 4
          m_Loop: 0
          m_ZeroValue: 0.5
          m_Range: 1
        lumVSsat:
          curve:
            serializedVersion: 2
            m_Curve: []
            m_PreInfinity: 2
            m_PostInfinity: 2
            m_RotationOrder: 0
          m_Loop: 0
          m_ZeroValue: 0.5
          m_Range: 1
        e_CurrentEditingCurve: 0
        e_CurveY: 1
        e_CurveR: 0
        e_CurveG: 0
        e_CurveB: 0
  userLut:
    m_Enabled: 0
    m_Settings:
      lut: {fileID: 0}
      contribution: 1
  chromaticAberration:
    m_Enabled: 1
    m_Settings:
      spectralTexture: {fileID: 2800000, guid: 318cbcd94840f1d48aca4d86234dc2e7, type: 3}
      intensity: 0.06
  grain:
    m_Enabled: 0
    m_Settings:
      colored: 1
      intensity: 0.5
      size: 1
      luminanceContribution: 0.8
  vignette:
    m_Enabled: 1
    m_Settings:
      mode: 0
      color: {r: 0, g: 0, b: 0, a: 1}
      center: {x: 0.5, y: 0.5}
      intensity: 0.44
      smoothness: 0.321
      roundness: 0.955
      mask: {fileID: 0}
      opacity: 1
      rounded: 0
  dithering:
    m_Enabled: 1
  monitors:
    currentMonitorID: 0
    refreshOnPlay: 0
    histogramMode: 3
    waveformExposure: 0.12
    waveformY: 0
    waveformR: 1
    waveformG: 1
    waveformB: 1
    paradeExposure: 0.12
    vectorscopeExposure: 0.12
    vectorscopeShowBackground: 1
